{
"urls": [
{"url": "https://gitlab.com/sxjzlb6785/zfsn/-/raw/main/csb.json","name": "🏡测试版"},
{"url": "https://gitlab.com/sxjzlb6785/zfsn/-/raw/main/zsb.json","name": "🏡VIP版"},
{"url": "https://gitee.com/tushaoyong/live/raw/master/接口/tsy666.json","name": "🏡Gitcode版老头乐"},
{"name":"📛公众号丨挺好分享","url":"http://ztha.top/TVBox/thdjk.json"},
{"name":"🔰公众号丨挺好专享","url":"http://ztha.top/ys.json"},
{"name":"🧶挺好丨饭影视","url":"http://饭太硬.com/tv"},
{"name":"🦗挺好丨讴歌线路","url":"https://xn--zp8-mf3g9f.v.nxog.top/m/111.php?ou=公众号欧歌app&mz=index&jar=index&123&b=欧歌zp8"},
{"name":"🌙挺好丨月光宝盒","url":"https://gh.con.sh/https://raw.githubusercontent.com/guot55/yg/main/max.json"},
{"name":"📛挺好丨OK线路","url":"https://gitee.com/okjack/okk/raw/master/op.txt"},
{"name":"🍌挺好丨PG线路","url":"https://git.acwing.com/iduoduo/orange/-/raw/main/jsm.json"},
{"name":"🧶挺好丨道长线路","url":"https://pastebin.com/raw/5NHaxyGR"},
{"name":"☁挺好丨云星影视","url":"http://itvbox.cc/云星日记"},
{"name":"🦌挺好丨吾爱影视","url":"http://52bsj.vip:98/wuai"},
{"name":"🦒挺好丨这暴脾气","url":"http://xhww.fun:63/小米/DEMO.json"},
{"name":"🦒挺好丨荷城茶秀","url":"http://rihou.cc:88/荷城茶秀"},
{"name":"🐼挺好丨肥猫肥猫","url":"http://我不是.肥猫.love:63/接口禁止贩卖"},
{"name":"🌨挺好丨高天流云","url":"https://ghproxy.net/raw.githubusercontent.com/gaotianliuyun/gao/master/js.json"},
{"name":"🍃挺好丨吾爱吾爱","url":"http://52bsj.vip:98/wuai"},
{"name":"💦挺好丨巧技巧技","url":"http://pandown.pro/tvbox/tvbox.json"},

{
            "url": "https://git.acwing.com/iduoduo/orange/-/raw/main/jsm.json",
            "name": "🚀网盘线路"
        }, 	
        {
            "url": "https://gh.con.sh/https://raw.githubusercontent.com/leevi0709/one/main/jsm.json",
            "name": "🚀One线路"
        }, 		
        {
            "url": "http://ok321.top/ok",
            "name": "🚀OK线路"
        }, 		
        {
            "url": "http://www.饭太硬.com/tv",
            "name": "🚀饭太硬线路"
        },          	
        {
            "url": "https://cdn.gitmirror.com/bb/xduo/libs/master/index.json",
            "name": "🚀道长线路"
        },                    
        {
            "url": "https://github.moeyy.xyz/https://raw.githubusercontent.com/xyq254245/xyqonlinerule/main/XYQTVBox.json",
            "name": "🚀香雅情线路"
        }, 
        {
            "url": "https://github.moeyy.xyz/https://raw.githubusercontent.com/PizazzGY/TVBox/main/api.json",
            "name": "🚀潇洒线路"
        },	
      {
            "url": "http://www.mpanso.com/小米/DEMO.json",
            "name": "🚀小米线路"
        },    
        {
            "url": "http://tvbox.王二小放牛娃.top",
            "name": "🚀王二小线路"
        },		
        {
            "url": "http://meowtv.top/tv",
            "name": "🚀喵影视线路"
        },			
        {
            "url": "https://100km.top/0",
            "name": "🚀Ray线路"
        },				   					
       {
            "url": "http://ttkx.live:55/天天开心",
            "name": "🚀开心线路"
        }, 
        {
            "url": "http://肥猫.com",
            "name": "🚀肥猫线路"
        },   		
        {
            "url": "https://download.kstore.space/download/2883/nzk/nzk0722.json",
            "name": "🚀D佬魔改线路"
        },   
        {
            "url": "https://xn--tkh-mf3g9f.v.nxog.top/m/111.php?ou=公众号欧歌app&mz=index&jar=index&123&b=欧歌tkh",
            "name": "🚀欧歌线路"
        }, 
        {
            "url": "https://github.moeyy.xyz/https://raw.githubusercontent.com/yoursmile66/TVBox/main/XC.json",
            "name": "🚀南风线路"
        }, 		
        {
            "url": "http://itvbox.cc/云星日记",
            "name": "🚀云星日记"
        }, 
        {
            "url": "http://ygbh.live/box.php",
            "name": "🚀月光宝盒"
        },  
        {
            "url": "http://dp.sxtv.top:88/img",
            "name": "🚀神仙线路"
        },	
        {
            "url":"https://www.gitlink.org.cn/api/kvymin/TVRule/raw/config.json?ref=master",
            "name": "🚀茶余线路"
        },		
        {
            "url": "http://52pan.top:81/api/v3/file/get/174964/%E5%90%BE%E7%88%B1%E8%AF%84%E6%B5%8B.m3u?sign=rPssLoffquDXszCARt6UNF8MobSa1FA27XomzOluJBY%3D%3A0",
            "name": "🚀吾爱线路"
        },			
        {
            "url":"https://github.moeyy.xyz/https://raw.githubusercontent.com/gaotianliuyun/gao/master/js.json",
            "name": "🚀高天流云"
        },
        {
            "url":"https://yydf.540734621.xyz/QQ/yydf2024.json",
            "name": "🚀业余线路"
        }		
    ]
}